*** Life<FredkinCell> 30x30 ***

Generation = 0, Population = 285.
000-------0-0--0---0-0----00--
--------------0----0--0--0---0
---00--0---0----000------0000-
------------0--00-0---0-00-000
0--0-------0-00--0-0--0-00----
--000-0--00--0-------00-----00
0-00------0--------0----------
-0-0-0-0--0---00-0-0----0--00-
--000--0--0----0----00-0-00---
--0-000--0--0--00-----0---0---
--------000---00--000----0-0-0
------0--0-00---0-------------
-00-00-0--00----0--------00---
0-0-0----0-0---0-00--00-------
--0----0--000---0-0------0---0
-00-0-0-0---0-00--00--0-0--00-
-----0------0----000-0--0--0-0
00-00-----0-------0------000--
00-0---000-0-0---0-------0-000
--0000---0-----00--0---0---0--
-----0---------0---00-0--0--0-
-----0----0-0-0---0-0--0---00-
0-0-------0---000---0---0-----
---0-0-0-0----0---------0---0-
-0--00--0---0-00-----0-----00-
-00---000-0----0--000-0--0-0--
------------0----0----0-00--0-
00--0-----0----0-00--0---00---
-0-00-----0-0---0----00--00---
0000-------0---0------00-0--0-

Generation = 1, Population = 426.
1-10-----0---0--0-01------1100
00000--0--0000--00-10--0010---
--01100-0-0---0----------1-1-0
0---0--0---0---1--1--01--10-11
-0-1--0--0--0-1---0-0-----00--
-0--1--001--01---0--01-000-011
-0-1-000---0-000-001000-0--0-0
----0--100-0-01----1-0-----110
---1-0-10-100----0--110-01--0-
-010--1--100-0-11000-----01--0
--0-00-01-1--01-001-100-0-0---
-00-0----1--100-10000-----00-0
-1---10-0011----1-0--00-0110--
-0--1---0-----0--1-00110--0--0
0--0------11-000-0---0----00--
01---0-0-00---11--1-0---1-0-10
0-000---0-00100001-----01---0-
----1--00---00---01--0-----1--
--0-0001--0---00---0---00101-1
0-11--00-100-00-1-01----0-0100
--00--0--00-0--1-------00-0010
0-0-010--01---1000-0-0---001-0
-------0--10001-100010--10-0--
00--01--0---00-00---00-010--10
01--1--01-00----0-00----000--0
0-100-1----0---10-1-1010-1-10-
0-0-0-000--0-0--01000-1-11---0
1-0-10---010--0-0-10010--1-00-
0-0--0---010-0-0--0-0---01-00-
11------------0--------1-1-0-0

Generation = 2, Population = 440.
20-----00--0-100101----00----1
---------------0-10-1001-2-00-
---2--1---100---00000000----01
--001-0--0----0-0020-1200---2-
-1--00-0-10-10----1-100000--0-
0-00--0---0---00010-1-011101--
01---1-10-010111---21-101-0---
-0-0-0-2110-0------2--0--00-2-
-0-20-0-----1000-1-0221-1---10
012--0-002--01022-110---0--0--
-0-0-1012-2--1-01-2---1--0----
0---1000020-21--21---0----1---
0---021--1-2-0-02-100--01---0-
-10---001-----1--201--21---00-
100--0-00--2-1---1-001-00011--
12------01100022-0------2-10-1
101----010--2111--0-0001-00-1-
0--------0----0---2-0-0--0-2-0
0010--12--1-00-1-00100011-1202
--2---1----101----1-0--0-01-11
-01-----0110--02000--001-01-21
--101---0-2----11-0101000-1201
-00---------11--21-1210--101--
--00-20010-0--011--0---1-1--2-
1------1--1--0-0---10-00--1-01
-0--1-20----000210----21--0210
---0-0--1-------1--11--0220-0-
-------0--2100-01021---00-----
-010-10-0-2------0101-0-12-1--
-2---0---000------0-0-0-02-10-

Generation = 3, Population = 469.
311---01100--2-1-1-100--1--1--
00-0--000-0-00-1-211-1120--1-0
---3-020--2-100----11--1-1--12
--11-01-0100-----1---2-----0--
--01-1------2110-0-0-1------10
1-11-0-00----1-1---0-11--212--
----020--01-1-2--0----21----0-
---1010-2--0-0---00-0---01--3-
--0-1--1--10211-0-013---2-0--1
1-30-1--13-0--1--0-2---01-1--0
010-021-3-300-1-203-1--0---0--
1------113-032003200---00--00-
1-00-320021-0101---11---211-10
0--010-1-----0----120-3200---0
---00-0-1--302000-0--20-1-22-0
230--0-012-11-3--1-0--003-2-1-
2120--0121---2--0-1---121----0
-0-0--0--1---010---0---0-1-3-1
--2100-30--0--0--1----122--313
00---02-010-1---10-1100-0-2122
012-0-00--2---131-1-0-120-2032
-02-21-0103-00--2--21--11-231-
01100000-01-22-0320232-0--1-00
0--1-3-1-10--012--0-0002-20-3-
--00100------1--000-1--10-201-
--1--03---0011-3211--0-2--1---
-00-0--0-000--00-1--20-13--01-
-00-----00---1-121320---11000-
0--1--10-0-000-0---1--102--2--
13-001---1110-----101-1-----10

Generation = 4, Population = 430.
-22--0-22--0-3-2-21-----201201
--010-1--0---102---2---3--0201
00------0--0-11-----20-20-012-
-0-2-1-01-110--1022--320-10-2-
0112---0-10-32---1-1-----00021
----1-011-0-02-20-01----13-311
0-01----0121----01-21--2--0-10
---2-2-2--01-11----2100--2-14-
001-20--0-2--2-----2-2---110-2
2141-2---4--0--221-30-0---2-01
1--01321--4--1-0-----01-0--1-0
---01-0------3-1431-0-0-------
--1-0---1322--1--012-0003220--
11-12--210000-1-02-3-1----00--
-0------2-1-131-1110-31--0-301
-4-0----------4-0---0-114-30-1
--3-0--23200-31--1-0-0----00-1
-1----1002000-21-0--0-0----40-
0032---4-0----1--20-0--3---424
--210------1-1----122-1------3
----1---01-0--2-20---0-31-3---
01303--1-14----1--0-2--2--3421
-2211--1012--31-4-13--0----111
1-0----2---0-1--10-011-31310--
11-1-----0-0---0-11-20-2103--1
----1------1--0-3--011--0122--
0-1-----1-1--011--0-------0--0
----1-0011---202-2-3--002----0
10-2--210-2-1--1-01-10-----300
-4---2-00--2---0-0212-2-0---21

Generation = 5, Population = 447.
33----033-0--403-32-----3-231-
00--10--0-0-021-02---1140-1---
1---102-1--11--0000-3-0311123-
0-13-----1-2-0-2-33-----0-1---
12---1---2104-1-02-21100-111--
-0-1--12---0---3--12----2----2
--1--201------2--203-----0--2-
-00303--2-1---200003211-03---0
-1--310--03--3-0010--31-2-2--3
325----0--00-11--2--1-101-3-12
2--124323--0-2--2-30112--0--01
1---201-13-0340--4-0-----01--0
1----32--43---2-212-1-1---3-1-
2-02-003-1-1-0---3----3200-1-0
--0-0---3023--2-22--0------4--
250----0-2-110--1110----50-11-
-1-0-0--431-242--2----1210-112
-200102-1-111032----10-----5-1
114----501--0-2-0--1-01-2-1-3-
0--2-0-00-02--0-10---0-00-21-4
01-0-0--1-210--331100-1-2-4-3-
12414102-2---01-2-12---3-0-53-
0--2-002-2--2-2052--3--011122-
2-110-03---1-2------2-0-242---
-20----11---01----2-31----401-
-01--0--00-21-1---112-2--2-31-
---0--0-20--0------12011--1-11
-00----1-22---13-3----1-3100--
2-------10-0-----1---110--0411
-5000-0--1----01--3--0---2----

*** Life<FredkinCell> 40x40 ***

Generation = 0, Population = 386.
----0----------0----00-00--00----0000--0
---------0-----0-0---0--0--0-0----------
----0--0----0----0---0---00-------------
------0----0------0-000000-------------0
-0-0--------0-0-0------0--------0--0----
---0--------------0-------------0-------
----0----------0------0----0-00------0--
-----0---------------0--0-----0--00-----
--0---0--0-00-0--------00---------------
--00--00--000-----0-----00--------0-0---
----00---0-----0--0---000---0---0-00--00
-0----0--0---0------0--00------000----0-
---0--0-0-----0-0---------0---000-----0-
-0--0-----00-------0-00----------------0
-00----0----000-----------------0-------
---------0--0--0----0------00--0---0-0--
--0--0------000------0---------------000
-----0----0-------00---0-0---------00---
-0-----------0---0----0--00--0-0--------
-0------0-000--------00---0-0-0--------0
------0-00------0000------00--0--00-0---
---------0--------000--00-0----00--0----
0-----0---0------0----0--------0------0-
---0--0-0-0-0---0-------0-0-----0-------
-----0-------000----------0-0-0---------
-0---0--0-0-00--0-000000--0---00------0-
-----0----00-00-0--------------0---00-0-
-0-----0---0--00--0---------000-0---0---
0---0-------0-0---0---0--0---00-0----0--
00-0------00-------0-000---------0-000--
-0-00-0-----------00-0-----0-0--0----0--
------00-0-00--0-0--0------0----0--0--0-
----0-------0------00-0--000--0---------
----0------0-0-----0---------00---00---0
--0--00--0---0------0--0-0-0-0---00-----
-0----0-0-----------00--0-------00-0----
00----------0-----0--0------0----0--00--
000-0-------00-0-----0--0-00---0--------
000--------0--------0---0----0-----0----
--0-000--000-0------0----0-0------------

Generation = 10, Population = 781.
-3-2----4333-2-33--172-2---433-3-31-1--6
-1-----3---2-3-53--3-1-4---2161-3-2203--
16----10---2114274--43-1--21--0--3--1---
51--321422---1----3---420--1-65-552-----
--3-2-----202-5----12-6-1---02-------2-2
232--011--2--1-2-42------2--362013-2--15
22--5--1-11---0---10---0---4-644--133-1-
132-01-0-----4310--2-2--4------2534---02
-45--643---2120-4-3-31264---6-5-1--1-32-
53224-0--32412--2153--2--3-22----3--1--1
-----1--3502--5511--714----43-1344---31-
----1-20-3-04-25052-2403214--3---20-0-1-
2120---2---2-10-2110-4-412--15-1--265-45
15--13----2441-----5-4--2-2-1-003--40--2
3-3---32--33-2--3301-42--34------0-2--5-
-6123-5-30-1-2--2-23--332---4-----025---
---42--036-2151-4512---4---2--12-3-4-12-
0-221-1023-3203-251-6314-23-23-304--13--
2--25--112--31-3--3--0--42--3--31---42--
2--654-----12-2-0--451224-4----3---0-02-
-1--223-34--10-----------0-3-3---1-62-24
-6-2--1--3335-1-----3--2----32--3--33---
-412------11--101-21--111---1-1-1---032-
10-270-----25222532311---052-1--------32
--33362115----2---2-1---522-2-81-2-0-31-
-----1--12-1-44-----1564-5-24--24--2--31
51---40--5-------2---57--24-3--42-143--5
-2031-2--134-2222-222-5--11-5-31-7--3333
57-1-4-00---0---634--14-10--3---3---5333
-2351--0-1---2---12--------3----7-15-6-4
--2-3-4-4--32--4----46-20423-0-4---416-1
0-321115-023-----3-114--231-3--11-14--2-
-----5-3-----312-271----1--1-0--1--14022
--6--2---245-3-5-3-21--1-6-3-1----2----5
02-2----10-1-334-4337--22--236--44--2--5
4230---03---2---4--11-0--0----1-1---4--2
--------4----2--4-0-3---3-9--44-282-4-5-
-3-6--10---4230-312-13473---05-------1--
37-2-0--032361044---5--2---0---4-2-1----
21-1335--5------2730-7--312--13-5-231123

Generation = 20, Population = 783.
56-3-216-4-64458----9-69-5---53-+--4-5--
45-6-256-53--64-6--852-------7--45-5---7
---7-6-5293--3--++2---1-2----72-----7-37
-2--5-5--5+5---4523-3775-8-4----+-5-2859
2---4-3----5437---5766+3-5-2156--46-43--
-665-55-34--951-3-5446-61--5-877-45+2-55
66--+-0-2643--1--5--5---3--5--+-3-3--82-
---6-1----35--7---2-3927-7--144-+855----
3--5-778-3-5-32--------9-5-3-39-----1--8
-6-6-73-5-6-3-6-6--66-4-24-4423--664338-
615-3-36--37-36+--52937-6--4--5---+42745
33-231-14-6---8---2-368---8---2-1-4--34-
-3--565--67-3-27-33---4833-7-9---5-+-6-9
9942-7-----7-5-1--29--33-7---8-2-4---1--
80---3-6---7-4--553--65-6-523--83-3---5-
-----7---5--2--6--6-57------+-7-------55
-6--5553-+-8-91--93---95-2--1--4-83+257-
7---22-34-755----947---6-4446-4-16---7-5
-5-----62--373-7-4-2---376---3---2354---
3-6---55--7-8--1----98427--3--86244-513-
7-0-5-42---8-43-64-----341-6389765---1-7
49--422535+-+65+3-5---4-6-+14-2----5-5-2
---33-4---2378--2-418--37-6-222--3-8----
-1--+-426-42--------6---22-7--4---6---76
52855-62-72663-5--654243+3-54---4----593
--6-345---83377--46+-7-8-8+5-45---3--144
--331-47--238-6-----49+2736----6-----64-
-4-------------4-44-6--5542-56756--987--
9-7547423--------6832-5--03-8-2192-2----
25-9-5-5-6---554--2-64-55-2-3---994-----
---34-6----36-9577-548-----5----6-572943
---6585--3--4-76----5--+--2462----5+---4
2-544-3-----344-36-4----2--5----5--2+1--
---6---3644-6-3+4--5--67--3--1-5---2-1--
25-8---43---77---48--3-2--664-6-5-1-5--7
+-62-47--2-3---3-03-6-1--3-4--7-5---4633
39-5--8-956254-16-37-3-144-------+4--57-
2--93-56-964----6----3--+3--3-2-5-7---4-
----3--3--3-763-723------1----2466-36---
2--2----3-5-+-7-2-6-8+---37-4-8------2--

Generation = 30, Population = 805.
7+5--4-9-+-+6--+-96--++------878-+--9-+-
6-7--38-58--------5--3-+-32---9---7---5-
3+-+---7-9--74--+----5-5-----+-5-+5688--
6-+97---56-8---68---4-+7-+---797--+-4+--
7-+5-96---66--+--6-+6-+--695------------
678-467-4---+--3-+-+-+98-5-64-9+-----658
+968---6--74---+4955866------8--67-8--2-
5--8-9-2927649+41-594----++547-+++9---8-
38+76+8---89664579+----+-9--99----9--7--
+9----6-5--8-4976766----5--8--94-+++--+7
--83-557-79----+-56+-9-6--+-36+--+---+6-
--+-3851--94--++3---48+9+585965+-6-+457-
-5-67+---9-836-9---188--6---2-8-8--++---
---+5+----6----38-5-4-6--+---+5-+---975-
+2-26-9+--9-29---9---96-88-34-2+-77995+-
---9+8+38---67-8-5+-8--88-7--+---7----78
-----7---++-4+-7-+953-+-----3--77------+
-4--2--57--88+87--9--82-3-6-9--+7+746998
6-9--4-73-68-6------4-8--+-+-4-71----+58
-9++8+-8737-+-85-4+-++-5+-+6+7+8-6-7-5--
--32+++788-9-97-9+7+-99-75-+8---9-6-6-8+
4--98-3-8-+7+9---+---9-+9---577-4-2-9-5-
--6----5-5---+---5--+8-6+8--4---+-9+-+--
-4-9+---9-7---5-+-7-87--639--66-6174-699
7--9-9+--9-++89----86-66+-9-6-+-89--97--
--+--7--3-+3-----6--889-7--6+9-9--68----
-5471--95-7-81---8--++-7+6+5-5-8-5---+56
-5--8-8---5+56-5--6-73-+9-7-5797+-4--8-7
+-+--97-8--------8+--5---2----45+-8-----
-79+-9--+--84-+-3---+6----5-+778++6++---
-------5-+-596-5-86-----6-788--++98--+94
5--96----4---7-7688--8--89---582-+7-7+--
--858+57336-8+87-9+--3-546-+-9-5-9+--596
--97-9-9+-7+66-+691--9+-17--5-+-63---2-9
-8-----49-8--8----+---------68-4-8-+98-+
+-+8--9-7-----+6--7-6-1-+889-7+6+6------
-+59-7----+4--41885+9---------748+67--+-
77--5-99-+-7-+----+537---6+5-9---3+5-374
+-4---+-6-6+9+7----9-516--55-4-5+-67--31
-57--6-7------997+-8+-34-----3--9649--8-

Generation = 40, Population = 794.
8-6--67++--+89---+87--+-----+--+++-7--+-
+59-95++------+-99---9---6-9------++--7-
+-3--8294-8-+6--++-4+--67----+-+5+7-+-8+
---+-9++7-++-73+-+86-+---+------++---+-+
-+---+--84+8-8-9-87-9-+-8++5-8---6+6+8--
----78---4---65----+9-++-8+-5++-----7+9-
-----6---9+------+8--+7-9-+---+--7-+---+
-+---+-4---87++-7+--++6+--+7+-6+-+-97+--
-+-9-+---8+--765+-+8---+-+--++++-6-----+
+++-+-+----+-7-+9--6++-6--6--4-9----7---
-----+-+----8-+-8-9--+-+-++7----++-+---+
3-+--++---+------+-8----+--5-+-+-+++78--
8-+-++-67+7-4-7--985-++-+6+-5+--++-++---
--++---++6-+7+-----+6+-6--+---86-9-+--79
+5-5+9--+-+-----+++--+88++-8723-9-7--9--
---+-+---++-9+-+38---+--+---++-+-+88--8-
7+++9+787-++--9+------+--7-+--++-+--5-++
--8------+---+-74+--+-7-7-78--8+--86---+
+++889--7--89-----+57-+7+----6----+9--9-
-+--++++79-6----34+++----8+-+++--6-7-77-
++----+8--8-6-73+-++-+----7++-9--+9-8--+
-+8---79--+-+-++-++-6----++-6-+6---8--85
+--+859-+96-+-5--8-2++-9-+-7-6-----+--+9
8-3---+-+--+----+39-++7+--++-967+-+--7--
9--+--+39+---+-8+---+88+--+--++-8--8+--9
+8+7-9+5------+-8--+--++9+--+--+--9+4-7-
-9681-8+5-77----9+6+-++++---6--+4-9---7-
-+-++4+-++7--8--9-----+++++---+-+89---+8
+-+-5+9--+9-8--+----6-9----+--9+--+5-5-8
78+--+-+-8-+-+-6--5----9+-7+--+-++7++-9-
-+--++-8+++-+-+9+8+++-+-9+----7-++++-+--
----8-+-4-65----+----+4-++---5-5-+9+-+++
-------+6-8++--+6+----+6----++--7+-++-+9
+++-5-+-+-9+-+++--7---+----9+2------73+-
5+--+++8--+-+---8-+++737+9++8-+6++8--+-+
-5-+-+-5-+5+-8+8+-+-9--7+-8----8+-455-65
-+-+-+--+---+78--+9---7-6--+-9+-----+---
+-7--7----79-+6-++-96-6++9+8++-++---99-4
-+89---5---+++8++-++--5-55--36-6++8-+--3
8+7--6++--+----+---9-+5--7+-79--+-7++-++

*** Life<FredkinCell> 50x50 ***

Generation = 0, Population = 369.
--------0--------0----------0--------------00----0
----0--------0----------0--0----0--0-----------00-
0---------0------------------0--0---0----0--------
-------0--0-0-------------------0-----------0-000-
--0----00-0-------0------------------0------------
--------00------------0-0-00---0----00---------0--
---0---------------0--0-0-------------------------
---------0-----------------------------0--------0-
0000--00---0----0---0-----00------0-0---00--------
--00-0-------0---------0-----------0--00---------0
------------0---000--------0----------------------
-------00------00--------00---000---0----00-------
-------------0-----------0---------0--------0-----
0------0------0------0-----00----------0-----0----
--------0-----------0--0----------------00--00-0--
--------0-----0-------------0---00--0-----0-------
----------0-------------0-0----0---------0----00--
----0--------------0-0-------0-0-----0-0---0------
-----------0---0---0------------------------0-----
--------0---0---------------0--------------------0
---0-0----0-------------------0----0--00----------
00--------------0----0---00------0--0------0------
--0---------000------0--000----------0-0--0------0
---------0---------0---0----------------0--------0
00--0-0-0---------------------0-----------------0-
0--0---0------0---------0--0----0----00----0------
0--00----------0-0---------0---0--0-----0----0--0-
--0--0------------00---0-----0-----0----0---------
--0------------0--0----0------0-0-----0---00-----0
--------------------------0--------0---------0----
---0---0---------------00-0----0-0-0---00-0-0-----
------0---0------0--------------0--------0--------
---------0---0-0-0--0------------------------0----
--0-00----0--0-0-0--------------------------0-----
------------------------0-00--------0--0----------
-------------------------0------0-----00--0--0----
---0-0----00---0--0-------------------------------
----00----0---0-00-----------0----0--------------0
--------0--0------0-----0-------0-----------------
----------------0------------0------------0--0----
-0--00-0-------0----------0---0-0---0------0------
--0--0-0-------0---0-0---------------0---00----0--
------0---0--0-----0--0-----------0-0-------------
0------------0--0-----------------------0---00----
---------------0-------------0-0------------------
----------0------------------0--0--0-------0-00---
0-----0-0---------0---0--0-------000-0-----0------
-----0--0---0---------0-------------------0--0-0-0
--0---0---00----0-0-----0------0----0---------0---
--00----0------0-0---------------0---0------------

Generation = 5, Population = 1273.
1---101210-02-0----0-----01-1-002---1----222--01--
10---000-----2--01---0-20--0-112--2----2000--0---1
0021--1-3--0--20-3---01012--2----20---0120-2-20---
-00100-111---13-20-00---000-20--2-11--011-1-1--034
01----------2-00-2-21-2010--10001-211100---1-0-001
0--1--0-0-001200-0----30-----012111-102-2--2--131-
-001-00--03--00-31-012----2-1100---02200------0-0-
-010-3-22-222--11-0---1-----0-2-0-0-402----20-340-
21---12-2--24-1--1-2-0--1-121---30-230------0--0--
-3--0-10-302-02-1-010--0-04-20--112211----31---1--
-124--0----11-1---2-0-0020--01--00--2-0--40-3-0---
10-1201-3--00-11-02-1-20-03---5-322302-3-1-2----20
1-----221-1-10012--0-1-02--1----0-20-101-12------0
0000---0---1--11-221020111013401-10-0-1--100-102--
---02--0--0100020-1--1-0-01---01---12201-30----0--
----1---102--0--10110-00-24--2--21-2-4-0-2-111-0-1
000-0110001212-0-002-------1--01010-0-12-1-----311
12-0-0---000101--103-1--01-021--2-0--10-02200--1--
0--00-0---012-1--00--400-2-0--------0---0---12-3--
1-0010--02--10---004-0012-00-22-0-0----1-----10--3
2-2-2-0--121-1-100--0-0----01-2--10--1---3310-1-2-
------011-----20-20--11----40---002-02-0310-0-0-0-
010-11-0---2203-21122--0-2-23-1--2----1-12-2-02-2-
0-210-00--0--1-1----0200-0--2--00102320-1-202203-3
-3------100-1-23-1-001021---10-----2--01---2-0-03-
332--10-002-1-0---3011-1-4-1---------1-22-1-----00
-0---0---00-1-1-00---0010--200-0-4----1--2--1-----
--10-------00-1--1012011110---04--01--0-2--2110-0-
01--2---21-----3--10---21-4-1-10-2-130-2-1---0---1
104--3-1---00-12--21-0--40111-2-410-------0-------
212-10-10-0-0-01-40-302350-0-3---0---21122--3-30-0
0-10-22---1-142-02130201---0--1020-4-1--2021110---
--23--0--11---01-11-----2-0-00--100-1-2-023300--00
0--0520-30----011--301-00110--0-0-220-0-------1011
-00--1-2-12101-----0---0-25-40-0--0-0----022220-0-
---00-1000-0-0--1--00-0----220-0202---------0-200-
00-1-----1--2-0-0-0--0-0---1002-2-0-1----0-20----0
1211-02--2--2-321---200---01-010----013-01101-0---
-0-02-------1112-0--10-0-0110-0-00-----2-----00--0
10--2-0100-------210200-0--0000--20---023-1-----0-
---0110323-3-001-03--0------1---1-30-----20-0---00
1204--12--0--0-31-050-01010-01---1--0---0-30---0--
102---0--2-221----1-21-1-110---1--1-0---100----00-
1-------1-10--10--0---2----00-000-01--00-410-2-110
12-0--1-0--0---1--3--00021-3--23-2--0---000--0--00
-0--0--1100-0-2------21--20--12---1-1-0--1-2--101-
100-0-2-30-0-2---0---11---21022---1--1-0-3010--200
----20-13-1-2-0-011--01-102-0000-2-20-----014---0-
--10-----2---1---01---2--2-2-300200-11102-1100-0-0
31-24-422-2-0-0-0----2-00--000-1-1-20-0--21100-1--

Generation = 10, Population = 1255.
4340-2-7250-32--2-131--1---4-4--4--0-0---357341342
-10-10012-1-1--251-4---51-3-13-5-1-22---1--0-304--
-0---144---030-----10--232-5-2421-30--0-30-253201-
1253---3-3-------30-0-12---0--25-13---3--0-123-06-
0-422--13-31-2-203---1-----11---2----410-303032---
-2-2213--3104-0---5---304--2--1322---0402-043--4-0
002---0-4142-0-1-4-1-34--1---3-151--3-01-3-104001-
-----414---433--1001-0-1--3--1--100--1--23-3---5-3
------------6---0--41--121-36-136-0--2-2-2--22121-
2-0--321-53-0-312-0--0----51-01-61252-12--44-1----
--24200---0-2-21-13--1-13-42----133-4----7-0---2--
--2230--53102-41-33230--21-1---1843---165-1-21-2-1
1123--3-3-22-101---2-60232------1-403-32033-1-21--
1-10--01--3--54--34-04-24-2-45--04-152--0---1-14--
-1---1------113732-2---0---121-411---522-5--3-03--
211-21-322-111-243-4---20----323-223-700-423-4-0-2
-1-22--1--253-3--------420461312-6012--3----0-5611
4--31-0-0-1-2220--140--33---2--351-01--00-3-0--20-
11--31122-1----24-3---3--40---031-12--2-33-025--1-
---22312--112---031-1--44-53--3--4---1122-02---3-4
42--3-2-223224-3---20-2---2---321--212-3---2--443-
-1-3--2431014-4---122-212--7--2-33---2-54210--1212
--1-14-331---3---62-3-5-54-36-1-4321--3--20-0----3
3-2-0--10--4--1--03---1----5-11-2-13-32----12-----
2-51-010-2304--6--11025--1-222---2---20----4353--4
54-1-3-001-3------5-341114-4114---323------24-1-0-
210-31---20-4--32-1-0-2--013-22--514-43-6-31--34--
22--4---40---3-31132--2--2--1--74--2-0--3------0-1
--2--0-0-3----26------326---41--33-24223243-11-0--
-24-3-24---2104-1-3225-1-34----2-21--1-----3-0-300
-----3-211------24-1--38-1---3423-042221---25-4-02
---012-0-1---451--45333-20---0--53-4-31-407-2--011
---5---2--1122----2---1232-1------0--4400-68311-1-
-3-35413530----4-2--1-01-225-1-1--5211331411-----2
-2--24-3024---103-4--2-21-6-7-1242----1---32-2--0-
2-----2-0--2---2252-31-4-11-2----------1----0-----
0---03-2---65---1--3-2-100--325-5131-1-311042---10
2-231--0--5--053--7--3-23-0--2--022--3---6432-1-01
----2----22--2-----23-3-13410----0---4-3---1------
----302--1-2--0---2-32---000-00-----1---454---0---
1-2-3-3-4--610-1----2--2--1-22-2----2---0---1-3-11
-535--432--01----2---21--3---3---250-01---6---1---
-3--1--1-21432-111-3-6--2-----1-0--3---1-25--01--1
2-2-1-0-2--20-4-2-0--3-22-11-1-1--1-1--5274---11-0
1331-2-2-05--00-2--1-1-1--160---23-13-0------2--11
-1-1-02---3--03--42-2520--14-433--233-----17-44-44
-23------03-13------23414254---0--41331-0--1-----3
5----22--2--320--2-0---13--11-0--4--152-11-15-6-3-
126-0-1442-30-2-2-3-1---45--3--2-0--2-4-32--0-4-10
----7-7-3--20-1-----03---0-0-2030-1---1--3-------1

Generation = 15, Population = 1302.
7-52-4---5-4--03--444----1-5-9----4-4----55-45-67-
-304------3--605663--4-+4-414-2+-4-4-3--4-0-4-2635
0-6--1-77-8163-23---1--5534--5952-4---13411-8-32--
-57----36--1---0--1-1-3-4-5--13844-2--6-2--238---5
-452351--2-1426--3--2---4-34--31434-7--0-33308-3-1
3--371-0--1---3--1-13-5---5-3-3445---24153-45--9-1
31534-0---54252--9-44----4-5----73-64---5-----223-
43-1-9-532--4406-3-25-3--543--5---0--4-05646513523
--225452-2---463-4-4---256--92-4----3--------325--
2323-34636--02--5--30----0-331----262--324-40-2--1
-4353-227-2---4-----1----355240-6-4454---7--4--555
-0---2--833-5---265-45--5----35396-62-2962324--35-
-125-34--5--31-----41+1435-7-2331271-34-0--3423-4-
-121--03--66-772236-14-552--7--134---335--141-3612
--3--4--3-2--35-5-53--4----3-64----3487--81-83-6-3
--31--0-3-3-2--55--6---3----8-3-3-5-1--3345536201-
44-35---2---8--144-5------5--6--0--13--6-----2-843
532--3333--32-4-23-5---4--435-2-61-3---004-21-223-
-3-5-6---122-0-5-2-3-862-7--40--11-2-15----0-+2-2-
402--5-2-34-3-4-13-8-4--6-8-2---2----365--3511-605
52--6323--43-9-41--2-2--2------343--1---65-3-3---4
--2----9-3-35-----13----42--3-515434-46-54234-14--
---2-7-64-3-23-1+-4--47355-5-32--641-55--413225--4
6341-2--0-4-14-20-413-125-4---2-7715-3-3313252-42-
2--4--33333-----2---27-45----44-4-3--313-2-6-554--
--6--33---8-2--10-6--6--2727334-35--------2-5-3---
-1-231----1--------4-3-----6-32--+-7----9-6--0--24
2342--0--303-55-21--25---5--42--5-5-3-----4-5---21
-354---3--33022721-2043--5--6-3-341-42-4-------0-2
----4--70--54--7--4547-35---3----31--1-145----2--1
559--52432----43--3-53599----35-4----4---8-3-45-3-
--31-531-3--14635--6335-5-4-133--4-91-3-5--3-4----
32-6211--211---2-4-412-5455--3-17--2-5----8----2-2
26--7-1-+----6-7--5-2-244255-10-11823--54----313--
---5263-07-2----647--30745-6+-37---15-3--34252--00
31021---115-03-25---521-3-2-24-2-3------530334---2
0-0---53--37-0--4314232-12344-82-454344-2--752--1-
433----3-3-1605-1-843---5--3-7----210--22---5--2--
2--021-524--5-3--2275--414-32-2352--4--3-1432-11-1
-----2----3----248-1---40231102----2214--671--1-13
---1-247644743-2--6---1220413---228-3-13---3-5-332
166-0-55322---0-63----3-231--4-23-8233-31-72---3--
6-82---40----344-14--61-3-61---402-62---------6--4
---2----2---2-7-43---6--332-2-1352123-55--43----3-
-8-21--325-4-0----6-3---3--73583-8---51-2--4--2---
223---4-43--15-04-3-----3-492-4401-35201-3471---65
824--0-1--5-26-42-2-3--46-8--473-----5--3-411-42--
-52-4-23-2-0--0-2333----4--2-3325-0--67142415-+--0
--8-2----22---312-34-1---84-5-4--23-425044-2--7-10
5-----8445-21--1---------1---4--222-45-2--42--25--

Generation = 20, Population = 1242.
-7-45--87--73--532--636-4--+----5-44-24--858---7-5
54--711-3-61-7--9-3-4---4-73----45-4-6-3710----788
------8-+--3-44---5--44--46-4-9---7-1723-22--542--
-----23----1----4--0-2--71-0-2---64--377404--942-8
-4+5-----3534---0--3-463---7--415---9-23-3--184--1
472682-0-3247-41-36-6260+-+5--3-6--285---3---2----
-----0-2-8-6--56-+-575--3528-524--4----3-606--323-
43--1+2-------063-1563--4-5----47----52-+84-54-87-
6-5-6--58--765951---41-5-----2-58--5--461-44--565-
---81--7--------82861--6---43-----29-4---67712-6-2
5----2478-----7335--2-1-3-8-7--4+-74-504-7--5--785
-2--8-4-9564-4937-8-96-4--7266-6-9-7-3-+-54-7--48-
2-3---57-7-2521572----1-4---2--52----4-7--4-424--3
---10--41-6--8+35---2-2682---64--40--84-4--5-6496-
-3-3------5316-9-3643-5-155-785545----7-------16--
3-3-4103448----68-375-2-4---8757-47-27-4-7+546--1-
-5-58-14-35--6--4536-------878--19-1-3------4-++48
6----53-40-5545--5-5-51-43----24-21----3096--1---3
23---6--31539-3--2-43+-----46--6-2--12--5512---6-1
--7--7-3-5-45-5------7--75+-5771-445-597----440--5
835-9-24--4349-7----4---5---2-74-42-256--5856-6---
---------4--54424-4----1-33---8--7--1-67-44----54-
-32-2-3-624-5--2+-535--56-3--45197-2---157---4-2--
74---34-1-45-5-4--62-----35---357-1-76------83-43-
-4+530---3-2--5933-33----6-7547542--3-2-35-----435
--6-3---24+7343-----77124-5843-1-66---1--4---7-7-4
---3--1----155-5--1----1--2+---26+2-485-+--2-1--24
3455943--5-4-5-641-457-217-14--+-58-63-54-7---2--2
---------9--247+--6214478--0--3---227--9----33-3--
7--34----0-55188---64-0-6775--6-7--542-------2--32
-6-----56--5--7439847-8++-4-26----265-656+466---6-
----27--644------5-74--5-3-----07459-6-1-2-85-0---
-3--43--4-2--3-----44-4-46-6-5---4-25-6--59-826-53
2--------536-90+6-+-5-25-4-53---32-2---8---70-3---
---62---5-8--2---4--36---5--+-----3-71433-5---333-
-4--1-32-376-30---4384453-53574-----3-485--346---4
-------3--596-----2--5-3---746+354-7--7-3-28--134-
74-5--6-+-8---563-95-775-2-5---3--242--32-7-8-33-3
312-3--5344-866-325-6----6-5--35-----6----6-532---
72-38234----51-3--22-4-71-84--3232--5-4---+2---326
3-41--687----8-54-868---3-4---2--2-1-344----3--342
18-------5---21--3--3266-5---44-4-+-4---42+-3134--
86---335-------74-5--7-4-2-2--35-3-94-434684---21-
32-2--1-----25--9604-763---35----3473--8---5-4--40
-+72---6--641---44---224--4--69----3-------5------
434-7-5-5-31--4-49-4-7-4---+---7-1----5-48782-838-
-2-1-12-5--438-6--3-356--3-7---5--844563--7-405-25
+8--5--37420--3-7444--537--43---6-172893--54-0+3-1
1-+-56---35-5-435--4-2-----85-5-2-6-4-7-64-4-----3
------+5-535-04-----2-32262-0-2657--4-2-157---2+--

Generation = 25, Population = 1232.
9-65864-97--64---45-65-4715+5+4--57-725--96+86-+8-
843-7--53------8-6-578---473--4---46--43-22-----88
03--2-9-+2---45----43-----964---35----5-64--9-63-6
-5--84---44-4-65--4------2716269-8--7---7-6-3--29-
--+87--2637-5-6725--45+-7----6428-83-7-6---5---613
-+--9---6-467+-3---37-73-7+-5-67-6--+-4-9-1-735++5
635--024--7+4--9-+36--536-----7497--76--5-2---6-3-
66-2-----3-5-7--4--69443-----57-7-045-21----7739--
-----5-5+5-8-----+65-26-6935--2----8-6--1---54886-
--3+-7-9-8--1-75+----1--21---3-2------+7-7-84---3-
6569-75+8-97-0--458-22-3----9---+4--6--4-73----+--
--83+--4-87-65--+--5-----4---8---+7--3-+-----565-3
-56---5-5883-24585----489-1-528-427-755--4--5553--
-14---0-45++3--36-7--4-783--9--24-23--7-5525--5---
--44-82-60732--+-6-56--64-837--------+-8-993-5-636
31-4-1-6------2--4-8--54-443--7--6---72--+--79--4-
-5--94-754-7--6--849--3-5---9--74+215---62-2--++-8
--56-7---5-6-6----66-5-996-4------2--606--837--6-5
24-886----6---4673-43-7----78428-335-265-6258+26--
-0-----4-6958---1-5-4+-676+-------7-1--9--6-5-1---
+5-7+7-435755+-8----4--286-744-7492-5++5--95-89-57
63---4---7-6-7----6554--5---54-7974--56---4383---6
-3-5-+----4--3--+9868+9-8-35966----3-7+--74557----
+------2--6-36----6-55-46-578365-+46-7-441-694-7-4
76+-514-+--27----453-9-88+---6+573--4--486--389-8-
+-----4--6----471--377-3-8----7-37----1-85678+-9--
-2---343-5---8-+6---336--2-+1-63-----+-3-2----4-57
87-8953---3--6---47-77-5--33---+7--5748874+5--214-
0-85-32----3---+538--57+9-------5--5+--+-6-6--6-42
-68-5------88-9---7-9--58-+--4+-7----54---3---535-
97962-58935--6-75-9-+4-++---495--3-7--9-6--87--88-
---4--5--5---48698-------6--9-32878+3-3------522-5
-3---45--53-885-7----39-5---47047--------6---3--+8
-9-5-+-5+---4+-+---8---87-8--3175-9----+-7-9--4-5-
---7--56-----36--4836---78-++0---743--7-3-6-6-345-
3--63243-58-33--9954---753---9-4665---79-6---9-4--
5---1-----+----55----5-636--6--6-7--66-73--9661---
-4--339-+-91-2--41+8--+-7-481--3-3---3---7-7+3--54
----8-56--429-----6-667-4-75--4----2--25-487-3-2-6
-2---44---7-7---4--2----45-52-444-3463-6-6--8--33-
586---8+-9-74846-4--81--60663--4---4-896--5---7-94
39--0---3-4----8+-6--57---3--76--6-6-644--+---4--5
---245--16-7665--5-477---594-54845---066-7+-3--32-
4765--4624------+--7-89----673-5-5-83-7---6--45---
--8-566-369712-5----34----69-7+758--6744---637---7
-34-828-854439----7-48-65-7-5-5-1-38+---69--37-4-9
-----25-82-6-9--5-54468-+-+7------977-7--7-------6
----875--95--48-+--42---87-7---4-829-9--46-670-652
----59-----6--5----6----6---8+7-3--------5---38246
8--4--+7----3---4-5--84-4----5-88--4-6---++--0----

Generation = 30, Population = 1238.
+87--7-+9-5796-9976-96-7--6+--6-8-869-8--+--89-+-8
+73-7--75----+--+7-7--7-9686-------77-56--55------
24863-9+-29697----854--795-9-5-85-9-47---5---7+4--
3-+7--4--5-1-28-8664--53-5+694----537-9--3--6+----
-7-8894-74-4--97--4-67-79-4+---495+---4--4-7----44
--4-+----6-----3--94-4-4---85-8+-75--95----5+4++--
---561268-7+4+----3-9983-73--8+--+-+98--6-49-8--66
6--3--5-557---394-2-+---77----8--3-65--4----8+-9+-
+45-6++5-8--77--2-856-68-+4---78+--+-6662-8--9---7
69---84---46-585-8+----8--+---8-+--+-7--5---455---
-6---+--+-++----65+74--3-4+9-8----766--78---95--+8
72--+6--9-85--+--885-9----+38+8-+--+-65--78--696--
368-1-8-5-9-5--8-+-5--7-+72-75---7---8--6-7886--55
+4----15--++4+-46-+-576+965-9663752--+8+6-55-+8---
-7------6-+--95+6-97-67-5694+-68-7359-8--+--+8--6-
-2--4--+67+-3239--68-3---565++-947+--8-75--5-9435-
-757+-67-7-9--95-9-----874---+7------7+885--6-+--+
---64-3-56-8------77--4+--5-7485-6-52---4---+-4-+-
4--8+-5941--+2-695---+8-------29543-3----9-6-----5
70-+----+6-88---4-69-----7++-89----64--+7--76-4--8
+-5+--3-4---7-4---236---8---7--+-+--7+--7----9+--8
865756--6----7---59-65--7---8--7-+59-7--686-+4-7-7
-6--4+---9979477++9---+-88----85+8-8-9+1-7--7-+-6-
+86-3--3--95-93----66-1---6+-4669+-8-+----------44
87+-8-4-+--37-9--5-4---+-+3-+-+8+--74---8--+4--688
+79---4248+----944-6-83-++-+-492-+------+-779+--25
75--54--7-42---+7-3-8-81---+-9--+--+5-64+---6-685-
87--+-4-+--559-+--97-838--84754+7--5--8+---69-337-
-7+54----964-4-+--9-36--97---36--7---------9-5---4
----675-1-----9+-3-+--08+-+--6+-----5--4-94+2-6-65
+8+728-9-48-----------8+-475------4----+6---+-8-84
426---52--52------6-65--88-7+-5-9++--6--9-+-7-4566
-57-6------5-9-2-8------+8+-7+0-----+-66-7+-+--6+9
5-98-+4-+75-4--+--+---3+-79-753+----9---5+-+1565-4
-5-7--596-8------7+3-7-+897++-485---+5+-4-7-7-4--0
8--662-4--8--525+-6----87----+-4--765-7-775----63-
7-1----7-1-+82--8---5-4-46--98+-98-+--97-+----3---
75--43+4---1-267----59----6+3+----8--8-75+9+--7-8-
-2-3+469-66-+--4----+7----8---5+-78--658-5---52359
-434-----6-58---5+--7---6-+-3-76-----4-6--+3-4--3+
-+--7-----5-7-4-+4+89----19-3-4-47--5++-4-677+--+-
-+-+--7------3-----648-85-381-6-68+------5+-5---48
+-93767-69--6---85867-565----8--4-----787+--4-+54-
--784---267538-5+---4+---8-+--55---+5-8-----57-65-
6-8-67----+---5-76---------+7----83---9534----5-7-
--5-83+6+6------6---696-6--+6-8936------8-+-4--5--
--9-536494--897--6--7-97+-+----+-------4--715---3-
+9-388-6-+-24-97+---3-739+----8-+-5-------7--0+66-
-5--5---8496647--049--74-9-+-+8683-7-------7---367
--7-+4-+65-632754-56-----85-3--+-+4-66--1----3--65

Generation = 35, Population = 1170.
+--9975+-8-8---++-7++-9---7+--6---9-92-53+9---8+8-
+----35952+4-+5-+7--9+---99--+7-5+-----9+5-877-8+8
7-+744+--3+-9---6-----6-+--+46--8-+178-7-8--+---7-
--++-645-5-1+2----853-74-6+8--------+4-9-58-+-6---
--+-----85---7+7--7----++14----4-6------+-6--9-9--
7-5----4--------75-6---6-8-9-98---55---6+4---7---6
76659--8++---+-+++-9--8-+-6---+5--8-+-3--+59------
--7--+--6-8-4---4---+6-79+----+9-42-----+++-9--++7
+--3-++---5+---+-+--6-898+4-+----9--------8-79-+6+
-+---+--8+6635-8-------8-2+---+4--3-5----+++45-9--
---+-------+8---7----2--36+-+9-7+6-9-92--------+-+
-5---745+9--+7+-++--+9----+--+9----+66--+--99-99-3
--99-5986-+4734---5-3+----3----+49--+-9-9-9+-963-8
-----52-6-++-++56-+96+-+9666+9--762-8-9+675-8---+6
--4-39557--6-+6+-7---9---7-6-9----3--+-88++7+-5-+9
-3-6-5--7-+---6+--79-----797++---+----376----+----
---8-8-7-----+-6--6--558-4--++7--+---+-9---5------
+7-+57--5-5+88+-7-9+-65--76-97----6-5--75-9-+37---
--1-+6--62+--5-9+855-+---+37--5--------99--99+672-
-2+-4-67-79-+-+--6---+5-+--+7-----7---+-94+7+-7-6-
--5+--55-7---+-92-4---94--89-----+4-8++------+--+9
---+-7----5--++-47+--65---5-9-+9+--94-7--993-7---+
-78+7-988-+----8+---+++88-38+9+5---+4++2-+6-8+-897
+-8--5-6------57--66---6------7-+-6+--8-7747+689--
---8+---+---88-+8--4-++-+--8---8+7-9--4-+9-+--+---
+7--455--9+--+89-5-7-+---+-+65----76662-+8--9+-+--
86--5-859-4---6+-26-+---553---8--+5+-+7----2--6+6-
--7-++-3+8-8--8+5-+---5-2--57-7-87+7+7-+--+----486
6--5-457--65---+--+4-8-+-+--9----9-7---+-+--5--7-7
-6-----+34-9+7---5+-+82--8----+8+7-86-----4+4576-6
--+-4--++-87--+-7----8---6+---8-955-7-+-8-4+-989--
-27-3----65-4-------9-8--+8---6-++++-84--6+8-6-869
658+78---65--+----+--7-6--+8+-26+563-7--2-+++--+--
-+--+--6--7-5+-+--+------+---8---5-59-6-7+5--57--7
7-485----8-62-8-69+5+--+++-+-3---74-+7+-6--798-5-1
+-9--384--+6-525++---5-----++-----886+7------+--8-
-51----+6--+8---+7-+77-------++-+9-+889-----7-4867
----54+6+-----77-1-+++-+----4+--6-----7-6+--+--5--
8---+7-+--7--+-5-599---5-98-5-7+6---997+-7-9-53--+
-95-+----+-8--6--+7394-+-6-65----6-5747-69-4-494-+
---4---+8+5-8-6--6---1-6--++5--7---68-+-7-89-+----
5-6+-9-+--8-------+-5+9--+----93-+-77------4---57-
-9-6----7---8---9--99+6-5--6--7--6-+-1-8--+6-----6
-8--55-728865+---+---+--+-3++7---6---5--4-+----773
-+---7-----+--68----48----7+--+9---6-+-5--3+--5-+9
6-5-9-+---8---64--+89+--96-+7-++-7--+4-5--++5+959-
-4--63-4+-6-8--6-67-7+--+5+-------+--6------62---9
+95---58-+-267-8--+-6--3--4--+94++-+6+-3-------9-6
-6--8----4--------6+--7-798-+--9---86---7--------7
--9---+----8---6-17-6+--8962---+--9-9+--2+-793--6-

Generation = 40, Population = 1246.
++-+-8---+---63+----+8-+9--+7+--+-----96-+--+-+-8-
+-6+--5-6-----7--87--+8--+++-+8+-+-+9-8-+--++-59--
+7+----++5+8--859-+8+---+-++---++---+-8-7-79+++---
-8+----675-4-4+-+8-68-7-97+9-----+-7+7-+--8-+-7-9+
68+--+7-+-+79-+--6-8+--+-4--596497+9+96-+----+---9
8--9-2------7--7--+-87--+++--+9+-96-+-67+798-8-+-6
---6-3--++++4+----4-9+--+-9-6---+-9++9-5--7+---4-+
8-+-8+----++-84-76--------+7-+-98-47-7---+-6-+6-+-
+-------++6---+----6-6-+--5++-98-+-++--84+8--+-+--
9----+-++--6----+9+7-55943---8-4-7-+-+++-+++9--+-4
--7---6--6+-+-----++---5-9+-+--7+7-++---++7-+-4-++
---8+-------+8--+++8--7+7-+-+-+6-+-+--+++-9+-++-+3
-9++---+-8---4--8-7+6+9-++--++++99---8+--9---++6-+
+-+---5+67-+--+-9-+---9--9-+--+77-3---++7-759+++--
-9474+-685-9-+6-----8+8-6--7+97--+----+----7-+5--+
-3---5--+9-396---6--6-849+-+++--6-+66+6-6-+7---7+-
---9-97--++---+96+9-666+95--++---+------++--7-++9-
-+++7+5--87--9-7--++18-+++-9--+-+9-6-6-+8-+-+-86--
----+------6++7+-+-7-+----57+----559--9--+--++-8-8
+5+----8+++++3-7++8+-+-------+9--++--9-++--++8++7+
+76++---5++69--+3+5897+7++-9+5++7---9++9---5-+-8--
8-7-8-8+---+--+77---77-8+8-+--+++--9-78-----+-1-++
6--+-+-++--+-7-8+++-+--+--4-+-+5----5-+3+--69-----
+--5-------87--93-87-9---7+++--+--7--+---77-+8---8
--+-+657-4+-9-+++-+-----++--+--9+-6-8975-+-+--+---
-9+66---6+-+7+-+--+++---++-+--+3-+-7----+--+-+9+-6
-----89-+--3-+-+--7-+4+2-+-+8-93-+7-6-8-+672-4-+--
-9-+-+7--9--6---------5-5-+8-----7+-+-8--7-----7-6
-7+-+58--+--7-9--7+-5+--+++-+5-+-+-8-96+--++7-----
-----+7-8-3-+--+----++-+++---8+--929--68--4-7-9--9
+++7-+-++9----+8+--7-+++++-85-----5--9-+-+----9+-8
-3---7-4+7-2--+-+-8--6898+9-+97---++-8-8-7+++9--7+
+-----+8--87----+-+-+------8----+796----78-++6--++
--+-+--6+-+----------+4+8++-+-6-7---9-7+8-6-------
---8---+----47937+----2++-+++-6-8---+-+-969---6---
-8+--49--7-+-+36++-5+-7-+9++-----8-99-+----69+----
9-2-----65--+4--++7-++---+5-+++--+-++-+--+--8--999
--7-5-+6+-+-+2--6-+-+---+57+-+48--+-4-+-7+-++59-+-
8---------8-++---6---895-+--84++--9---8+---+--4--+
--8-+78----------+-894-+9---77-67-4-7-+-6---+-+6--
9--7+7--8+6---99--+-+--985+--+8--++9--+----+9++9+-
--7-----7-+--3-8---+-+++--4+3++48++--+875-+4-7+8-+
---7-----+38+------++---88-75-+---8---7--++6----7-
88++7--+4888-+-9--7---++-+5++9-79-5-----7----9-++-
---3+----++-528-+-9-4+-9-8+-77+-9+7-8+9-56-+-9+8--
776---+-+---6+6--++--+-++---9+++37-++--8++-------+
+7-6---4-8-----6--868-+9++++4-+-+8++--+-+++-64967+
--+8-----------+--+7------5-7++5++7-7-+---+--2+---
4-+----++------66---6-888++++-++--8-7---889---+7-8
-++-+6-+-74---87-38-9+-7--+3-78+--9-++-+3+-+-4-+-6

Generation = 45, Population = 1227.
++9-+++--+-----+--9++8+---8-+-+---+9+----++-+-----
-----55---+-+-8--+--+-+++---7+--8-+-+--++8----7-+-
+-+-6--+--+9--+8+7+---7-+------+-5-2--9-+-8--++---
--++-8-786-4+-+++-+996-----++-+---87-7+++5+5-+-5--
7++---+4+9+--8-+----+---+75-8-7--8-++-7++-8--+-+--
9+--+3+-+--77+---6-7-9--++---+-+--7-++-8+----+--+9
---8--4----+--9+++--9---+89+-++6-+---9--++-+-+-59+
---+-+-----+-95+--28+-7++++85---8-49----+-+--+--+9
-79-9+-++-6+--++-+-88-++++8----9++-+-8-+4----+-+7+
++-+--9-------8+--+--75+--+-79+-++-+7+++----+5---7
+9-+--6-+7++------++-587-9-+++3--+---------9--6+-+
-9+-+857++--+--8+-+-+--+7-+--+----+--7+---------+6
6-+-4+-----+-7----9-9++--+-8--+-+9---9-+-9--+---8+
+--38-8-9-+------7-+8--+--8-+++-+-3-+--+-98---++--
997--+-7-7+-7-9----7-+-+-+---+-+-+5+++-++++7-+-8-+
-8---65-+++---6+9-+-75-5+-+-++9+-+--6---8+-+++-7--
-+6+--999-++-+-+---+8----7+-++8----1-++++-+58-+-++
++-----77------7+7-------------7++--563-----+----+
973-+-6-7----+--++--6-896-+-+---78---3+-++4--+8-6-
-7+-8---+-+--4+9----++-+--++-++86--8-+------+-----
+-6--77-5---+---3+--++--++8--6++++---++-76+--+-9+9
---+--++-9+-+++-+-+-8-79++6++---+-7-------+---1+-+
-+-------+----9+-++++++++-7--9--+-6-6+---+8-++++-8
+++-48-+9-+8+-9+-1-8--5+---+--9+++8+++-7-99-++-+9+
++--+7---7--+-+---+-8+-+-+-+-9-+--++-++-----69-8++
-+-7-7847-+-8--+--+-++6----+7--58+-8+75-++--+-++--
-----8-++-6--+8---9++--48-7-+993---+9++7--9--6++6+
---+-+-5--798+-----+-9---+-++-+-+8+9----+8--+-5--7
8--9-6--9--9-69-8-+65-7-++-3+5--8-9+--6+-+---6-9--
-8--------3-+-++6--+-+5----94---+--9-+-+---+9-+-++
----6--+-++-7+++-++7+-++-++-8+---56+++-++-7+-----+
--+8-889--+--8-++++9+9--++---++-++++--4---+-+-+--+
+6-+++-+-6-9-+9-++---9--+-+--+4--8-6-9++--++--9---
9+-------7--9+---9---+9---+8-+----+7+7---+-+-7---+
-----99+-8-7--+--+-9-85-+-+--6---857---8----+--7-3
--+-8---5++---67++-7+-98--+--+86--+-+--++8----8---
+6-6-7++---+-5--+-7-+-7-7-6-----+++-+++-6+--++-+--
+++-6---+9+3----74+---+-+59+-+4-8--+-+++-+++---7+-
8---+9+-9---+------+--+67--88---6+-6+--+---+87-5--
+++8----4+----+--+-++5-+-+---++7-6--87--7-----+9-+
--+-++-+--7-++---++--35--6++-+-+7++---++--9+++-++7
5-7-4-8-89+48-6-+-++-+-+-+5+--+68+++---76-+778----
+-+-8-8++--+-+7-+-++++6-+8----++-+8--689--+------7
-----77+---8+-+9++++8-+------+9++85----+--++-+9---
8+--++--7+-+639-+-929+898-++8-+---7--++8-97+-+-9++
8-------+8+--+--++-----++68---+--98++---++--8--7++
-8+7+-8-+9--++-+--+-9---+++-6-++-8+-78--+++475+8-+
-9---+7--+-49-----+--7-5++7--+--+--+--+-98------+6
49---+9++6----+---9-74---+--+-+-+5---6-5+-9--8-8-+
+++-+7+------9+8--+99--89--36-9+----++---++--6--8-

Generation = 50, Population = 1232.
----+-+---+---5-+-+++---+79++-+-+--9+8--5++++-++--
+----5-------+9-++78++----+-------+---9+-++-+9+-++
+---6--++------+-+++--8+---+---+---4+----++-++-9++
-++--8+-+895+--+-9+9+---+++++--9-+-++++-+-+---+---
---9-+-6------++6---+8+----+-+87----++-++6-+7+--+-
9-----+-+8--8-5899+--+---++---++-+-+++88--+++--++-
++-+---+-+++-++-++----+5-8+-9+----+-++7--+++-----+
--++----9--+-------+-9--+++-8++++--+9--6-++9----+-
+---+++---7++++----8+----+---9---+-+--9+-+---+--+-
++-+4--++------++-+95-6--4+-7-+5-+6+8---7-++---+5-
-+-----++-+++4-+-6-+7-----+-++-+---+-+-+++9--+-++-
--+--+-7+-+++9----+-+--+--+8++-9--++98++++-+-----9
--+-6--+-+++-+6-++-+++---+78-++-+--8++++----+--6--
+--587-+-9--+-+-+-++-+-+--9+-++-++-5+--+----++---+
+++85+---7-+----+-+---9++++++-7---8+++-+--++-+89-+
--8+8-5-+--4+6--+--+-8+5------+-9++--+-------+--++
-+---++--++--+++8+-+9-++--+++-9+-+--------+++-++--
+--+-----+--+-+7------8+++9+-+-9--++6-6---+6+89-+-
+-4-+8-----6-+-+-+---+-----++--++----4+++-7---9--+
--+---8--+----++-+9+++5++++++----+-88++-+6------8+
+-----7-6++-++-+4-++--+-+++-+6-+++8-+-+--6--8+++--
++-----+---++--+-++---++++7+--+++--++-9++++--8---+
7++-----+-+-+-++++---++-+++++-+7---+-+----+----++-
+-------+7+9+---62--+-5--9+++6--++--+++-9--++--+--
-+-+++-9+--8-+--+8-6-----+-++-+++++--++-+--++--+-+
-++--+9--++----+77---+8--++-8-----99+86-+-9+-+-+-9
88--7-++---------7+-------8+-+-5+-7--+-8------+---
--++-++---8+-+-+9--+---+7+-+-++-+8----9++-+------8
9-----++9-++---+98-6--++---5+-++-+9--+-+---+-69+--
--+-8+8++-6++--+--+++--------9++-----+-+-+-+++---+
-++97+7-++--7+----+--+++++-+--+--69+--+--+9+-+-+++
5--8------+8--+++---++9++++++-+4-+-+5-5--9++--++9+
+----+++------+--++9+---+--+++6+--+---+---+++8++-+
+++-+--8+-++-+4--+-+6+++++++----+7+7--7+-+-+------
+--9-+++-8++6-+---+----+++-+----++--+-++--+++-67-4
+++-95-86+++-+----+-+++-----++--9-+-++-+--7++-8+-+
-75-79+-68-----+++-++--+8--+-+-++----+--6+8-++-++-
+--9--+7---4+----5-++++++-+--+7+---+--+-9--+-6++--
--9-+---+7+-+-7-----+-+7-+--96+---+6-++--++-+-768-
++-++---6-+++---8-+-+5-++-+9-----8598+----+-+----+
---+--+++--+--+9--+++8-++-+-6-9---+--+-+8+9-++----
-+------99+-----+7-+9--+++--6+-7+-+--++-7-+8-8-+-+
---8-++-+-3--------+++6+-----9+--++---8++-+9--+8-8
-+-----+-+-+++-9---+9-+++---+-9-+-8+98-+++-+6++-+-
---6-+++9--+9598--9------+-+--+--+889-++-+---+----
-++6+3++--------+++-+-7--9-+-+++5+8-+-++-+-++++++-
-9--+-+5+++----+-++8-+-+++-+---+-8+-8+-9+-----+---
--+-++9---+----+--+--++7+-7+---7++-++++----+9-+-+7
--+6+-+++7++---+85-------+-++-----99-9+7--+--+----
+++-+8++----7-++74+-++9-++-5----+++---4+6--+--++9+

